id,prov_id,kab_kota_id,kec_id,nama_lengkap,tempat_lahir,tanggal_lahir,pendidikan_terakhir,alamat,id_relawan,photo_loc
0,1,1013,11011012,VQiAZSKZjehkrDg,jRykFAesXqoDrIR,2009-06-28,Nor,zkebABKrGIlwfVq,2,
4,5,1017,11011016,pcFMmBZzuFVKLRt,YuIcGEcpPbFiThe,2009-06-28,Wmz,HUYrxcFIlcbxodO,6,
8,9,1021,11011020,izEoHupPaMAZhga,LsyCobdsJgUZPWm,2009-06-28,DST,NPhQhLRENQElLiu,10,
12,13,1025,11011024,lgbuXjsTdaZOAuF,MoWFrRUfGjhuGNj,2009-06-28,inm,OMYEGBkKqwSDbsS,14,
16,17,1029,11011028,tzUwkURAZVSUCUc,ukHjdjbjJYUlapv,2009-06-28,lqo,CUUhTdSaRxiMHfO,18,
20,21,1033,11011032,DItQNNoWJCgHUpV,duGIeQkLJlNLEgp,2009-06-28,ZFQ,zECzkPSThHfUKGh,22,
24,25,1037,11011036,SOSoPhTDdtqtKRg,GVImQmmeKsDVvRZ,2009-06-28,Hlj,VVXIFrKmWjJorrW,26,
28,29,1041,11011040,hccasXHmIDavjjf,zhqnCeTBrFCVPJE,2009-06-28,PQf,GAYOIbqdivWtwaH,30,
32,33,1045,11011044,cDThURzsuypzTGh,XcrEcugfGWcMsnU,2009-06-28,wnZ,DhFFlmkQQpNzLTV,34,
36,37,1049,11011048,wrFpBZyGuvNyLOk,qHTTbeqwYHvcGGE,2009-06-28,ZRG,zuUQFmShbHvDFAa,38,
40,41,1053,11011052,hnFhAPdOmVrvSIV,naYSWoYWxCqwXJL,2009-06-28,cRl,HjsCNLwQnibvXIx,42,
44,45,1057,11011056,qtyqFYJRagOfrkl,XIYAJRlOmSoFLPR,2009-06-28,jOc,KseNSNNEmYSVRLF,46,
48,49,1061,11011060,XOJkGGclWEXYzpc,vrdvMOWnCNFgiLt,2009-06-28,mdh,EoGNKGsCKeFXqtl,50,
52,53,1065,11011064,ciMfVKbEIyOpjjB,HhQReUJXuzzbkSE,2009-06-28,VbV,urlPUWfsWAujaLc,54,
56,57,1069,11011068,YUNqUzgCnOWQKrx,bkZXCjfmhvNYfJW,2009-06-28,MSE,xpVCBDKMkeRyICw,58,
60,61,1073,11011072,zzxzIyxPSpkRJPi,vIeVaCwPRpwsgHO,2009-06-28,ryG,vafPHgOiSdPoKnS,62,
64,65,1077,11011076,QbNcGjBBVANxARM,AfnabtdldJhWLeP,2009-06-28,jxc,rFWbAbZJAqkJMPF,66,
68,69,1081,11011080,EKQMcuxckcOEQoC,gtgNsmAIaDvniNt,2009-06-28,ucH,ZbbeqcERJvDoRlq,70,
72,73,1085,11011084,KnxrVwOAsoqPybg,tSMVJCyNLeGUzub,2009-06-28,qZf,dtkaSNZSFrDPbvG,74,
76,77,1089,11011088,eRcyyMWomyrhGkw,beABAqbtFxXkIFM,2009-06-28,ZFa,FpvCGiUWCUpGyoK,78,
80,81,1093,11011092,vxiBhzueOWVRpGw,OSrXiVgQqbWbCfd,2009-06-28,tCU,nkNmVspKlYGVNja,82,
84,85,1097,11011096,DYiOlHhTJOVIYQd,vGIMRWkKMAdXKqz,2009-06-28,FXa,aJKVlvlNQojJbRM,86,
88,89,1101,11011100,rOTCLVhxBPxFNqx,pzOLXTcssubreXx,2009-06-28,Rkh,yLnRQikHUiCEfwD,90,
92,93,1105,11011104,FRhFlhXSQQfTCJG,xuWOwnMWMyWlIqz,2009-06-28,ken,JXBsxqtzhOVADlk,94,
96,97,1109,11011108,SywCTKsExiStPCw,cWNSonXZwAfDRwh,2009-06-28,qBg,JPhZqvMwYobRMqc,98,
100,101,1113,11011112,nFtyjmprfIIyjEW,zqJLiWqNVnWLTSd,2009-06-28,dPP,qQdpjhCDMzLPCdS,102,
104,105,1117,11011116,WLiEczCVVQThYyY,VeoTlXZZepuiZBM,2009-06-28,Mme,bJmWMCiGgAyjCvp,106,
108,109,1121,11011120,SelmPuYqluoGnGr,sSUpVPzuJtEpFYz,2009-06-28,txL,NxLCfwVsWUMmEdJ,110,
112,113,1125,11011124,YXAJklqkIgYoYjZ,iQkpfIGGlHJMjOi,2009-06-28,OfP,PEAdxSyvaHscJBB,114,
116,117,1129,11011128,WWbtzlHEffNXDEV,iuQlgMKXXqkzmAS,2009-06-28,AdN,ZfZBdKohSOCWFUm,118,
120,121,1133,11011132,WojcDXvIicDDGrd,ixhjifRzuiIHVCD,2009-06-28,CkA,EAbzorqKfWdwLKR,122,
124,125,1137,11011136,wukocwbewmnvmFW,fSYLCcEcKzseNHU,2009-06-28,bCs,FXGVSyhkHncmpqw,126,
128,129,1141,11011140,ImvKERhomDzraPd,BzDEviEwLaNJeww,2009-06-28,CkV,SgqHuTfnVwPNpDd,130,
132,133,1145,11011144,mbIWTavopcXPeby,LErmoKEIUgUpxwv,2009-06-28,IsT,spbvfBVpDgzKHLo,134,
136,137,1149,11011148,BMxegCayLxLWNHQ,pFeGSHzuOgovQhY,2009-06-28,RkH,EkPpxBqxvtMdOUQ,138,
140,141,1153,11011152,VVuRhIyXdyTmbBw,ptREZjLqBLcMPKI,2009-06-28,Hhc,XZSTxuqpIyTtSMm,142,
144,145,1157,11011156,lqqmUNBTEcqxOAo,HQgDNVMNSFAnDxI,2009-06-28,wBO,mdFMLkjVFTAplvL,146,
148,149,1161,11011160,GTAdCAfjGeWaWAH,zSceBsJscvShPlh,2009-06-28,lWO,kbXHbdndyzypyiD,150,
152,153,1165,11011164,WBTXjZtClyJIhWP,BcKmvhsQwwvpwxp,2009-06-28,cXK,dtEiRzBFDYZaMRd,154,
156,157,1169,11011168,tklPXbTEMwqKDJs,rinjEKhJUWTQrcH,2009-06-28,Aub,syAaibONcDHpNja,158,
160,161,1173,11011172,HQhrOLPoVdWnhqJ,QOFGXABxVopWNfY,2009-06-28,Xhp,zhEAAQRezPhnXiB,162,
164,165,1177,11011176,CvtOFlrOMAdxUbU,uJDkNNqzzAYRUlw,2009-06-28,Dsf,LFtikykdqKZWsRK,166,
168,169,1181,11011180,QqKEiEhlNaLoNMZ,EhHTBQwnKPWgXXx,2009-06-28,npi,UbWlFQKjhbmLJqn,170,
172,173,1185,11011184,EtevscUgwHVECSD,hmurSRLzkoFfCEM,2009-06-28,FFg,ztRkSTKZFXIPdDr,174,
176,177,1189,11011188,ekEbYfRLFkhOnpG,GYpsKrcIoXQGDiX,2009-06-28,net,BUnFAUrDAGuccSi,178,
180,181,1193,11011192,XHCLolKPnwtxGjV,HunbtVunPMhTjWG,2009-06-28,IZM,OXszDEdNptUcgpJ,182,
184,185,1197,11011196,EeoqLruAtBXUdGE,ryEgeSwAQMGFEPR,2009-06-28,iSj,NzylGjBaMNkDIdx,186,
188,189,1201,11011200,veoTCYbSOebxLuf,EeJrnUbQcEFxRwT,2009-06-28,sKi,eLRjjZFXdfSgvBh,190,
192,193,1205,11011204,fPVaKdTWEiZVXEE,GPgAmYgMUchBgpS,2009-06-28,YYm,EDbClEKBndLeiox,194,
196,197,1209,11011208,zLAOvvGUmVmxegD,nBxSXaICBMzjCnp,2009-06-28,VNp,QsXeVGwXXIOOmRK,198,
